[
 {
  "align_labels_left": 0, 
  "css": null, 
  "custom_format": 1, 
  "disabled": 0, 
  "doc_type": "Sales Invoice", 
  "docstatus": 0, 
  "doctype": "Print Format", 
  "font": null, 
  "format_data": null, 
  "html": "<style>\n\t.print-format table, .print-format tr, \n\t.print-format td, .print-format div, .print-format p {\n\t\tfont-family: Monospace;\n\t\tline-height: 200%;\n\t\tvertical-align: middle;\n\t}\n\t@media screen {\n\t\t.print-format {\n\t\t\twidth: 4in;\n\t\t\tpadding: 0.25in;\n\t\t\tmin-height: 8in;\n\t\t}\n\t}\n</style>\n\n<p class=\"text-center\">\n\t{{ doc.company }}<br>\n\t{{ doc.select_print_heading or _(\"Invoice\") }}<br>\n</p>\n<p>\n\t<b>{{ _(\"Receipt No\") }}:</b> {{ doc.name }}<br>\n\t<b>{{ _(\"Date\") }}:</b> {{ doc.get_formatted(\"posting_date\") }}<br>\n\t<b>{{ _(\"Customer\") }}:</b> {{ doc.customer_name }}\n</p>\n\n<hr>\n<table class=\"table table-condensed cart no-border\">\n\t<thead>\n\t\t<tr>\n\t\t\t<th width=\"50%\">{{ _(\"Item\") }}</b></th>\n\t\t\t<th width=\"25%\" class=\"text-right\">{{ _(\"Qty\") }}</th>\n\t\t\t<th width=\"25%\" class=\"text-right\">{{ _(\"Amount\") }}</th>\n\t\t</tr>\n\t</thead>\n\t<tbody>\n\t\t{%- for item in doc.items -%}\n\t\t<tr>\n\t\t\t<td>\n\t\t\t\t{{ item.item_code }}\n\t\t\t\t{%- if item.item_name != item.item_code -%}\n\t\t\t\t\t<br>{{ item.item_name }}{%- endif -%}\n\t\t\t</td>\n\t\t\t<td class=\"text-right\">{{ item.qty }}<br>@ {{ item.get_formatted(\"rate\") }}</td>\n\t\t\t<td class=\"text-right\">{{ item.get_formatted(\"amount\") }}</td>\n\t\t</tr>\n\t\t{%- endfor -%}\n\t</tbody>\n</table>\n<table class=\"table table-condensed no-border\">\n\t<tbody>\n\t\t<tr>\n\t\t\t<td class=\"text-right\" style=\"width: 70%\">\n\t\t\t\t{{ _(\"Net Total\") }}\n\t\t\t</td>\n\t\t\t<td class=\"text-right\">\n\t\t\t\t{{ doc.get_formatted(\"net_total\") }}\n\t\t\t</td>\n\t\t</tr>\n\t\t{%- for row in doc.taxes -%}\n\t\t{%- if not row.included_in_print_rate -%}\n\t\t<tr>\n\t\t\t<td class=\"text-right\" style=\"width: 70%\">\n\t\t\t\t{{ row.description }}\n\t\t\t</td>\n\t\t\t<td class=\"text-right\">\n\t\t\t\t{{ row.get_formatted(\"tax_amount\", doc) }}\n\t\t\t</td>\n\t\t</tr>\n\t\t{%- endif -%}\n\t\t{%- endfor -%}\n\t\t{%- if doc.discount_amount -%}\n\t\t<tr>\n\t\t\t<td class=\"text-right\" style=\"width: 75%\">\n\t\t\t\t{{ _(\"Discount\") }}\n\t\t\t</td>\n\t\t\t<td class=\"text-right\">\n\t\t\t\t{{ doc.get_formatted(\"discount_amount\") }}\n\t\t\t</td>\n\t\t</tr>\n\t\t{%- endif -%}\n\t\t<tr>\n\t\t\t<td class=\"text-right\" style=\"width: 75%\">\n\t\t\t\t<b>{{ _(\"Grand Total\") }}</b>\n\t\t\t</td>\n\t\t\t<td class=\"text-right\">\n\t\t\t\t{{ doc.get_formatted(\"grand_total\") }}\n\t\t\t</td>\n\t\t</tr>\n\t</tbody>\n</table>\n{% if doc.get(\"taxes\", filters={\"included_in_print_rate\": 1}) %}\n<hr>\n<p><b>Taxes Included:</b></p>\n<table class=\"table table-condensed no-border\">\n\t<tbody>\n\t\t{%- for row in doc.taxes -%}\n\t\t{%- if row.included_in_print_rate -%}\n\t\t<tr>\n\t\t\t<td class=\"text-right\" style=\"width: 70%\">\n\t\t\t\t{{ row.description }}\n\t\t\t</td>\n\t\t\t<td class=\"text-right\">\n\t\t\t\t{{ row.get_formatted(\"tax_amount_after_discount_amount\", doc) }}\n\t\t\t</td>\n\t\t<tr>\n\t\t{%- endif -%}\n\t\t{%- endfor -%}\n\t</tbody>\n</table>\n{%- endif -%}\n<hr>\n<p>{{ doc.terms or \"\" }}</p>\n<p class=\"text-center\">{{ _(\"Thank you, please visit again.\") }}</p>", 
  "line_breaks": 0, 
  "modified": "2015-04-21 05:06:29.380856", 
  "module": null, 
  "name": "POS Invoice", 
  "print_format_builder": 0, 
  "print_format_type": "Server", 
  "show_section_headings": 0, 
  "standard": "Yes"
 }, 
 {
  "align_labels_left": 0, 
  "css": null, 
  "custom_format": 1, 
  "disabled": 0, 
  "doc_type": "Journal Entry", 
  "docstatus": 0, 
  "doctype": "Print Format", 
  "font": null, 
  "format_data": null, 
  "html": "<div style=\"position: relative\">\n\n\t{%- from \"templates/print_formats/standard_macros.html\" import add_header -%}\n<div class=\"page-break\">\n    {%- if not doc.get(\"print_heading\") and not doc.get(\"select_print_heading\") \n        and doc.set(\"select_print_heading\", _(\"Payment Advice\")) -%}{%- endif -%}\n    {{ add_header(0, 1, doc, letter_head, no_letterhead) }}\n\n{%- for label, value in (\n        (_(\"Voucher Date\"), frappe.utils.formatdate(doc.voucher_date)),\n        (_(\"Reference / Cheque No.\"), doc.cheque_no),\n        (_(\"Reference / Cheque Date\"), frappe.utils.formatdate(doc.cheque_date))\n    ) -%}\n    <div class=\"row\">\n        <div class=\"col-xs-4\"><label class=\"text-right\">{{ label }}</label></div>\n        <div class=\"col-xs-8\">{{ value }}</div>\n    </div>\n{%- endfor -%}\n\t<hr>\n\t<p>{{ _(\"This amount is in full / part settlement of the listed bills\") }}:</p>\n{%- for label, value in (\n         (_(\"Amount\"), \"<strong>\" + doc.get_formatted(\"total_amount\") + \"</strong><br>\" + (doc.total_amount_in_words or \"\") + \"<br>\"),\n        (_(\"References\"), doc.remark)\n    ) -%}\n    <div class=\"row\">\n        <div class=\"col-xs-4\"><label class=\"text-right\">{{ label }}</label></div>\n        <div class=\"col-xs-8\">{{ value }}</div>\n    </div>\n    {%- endfor -%}\n    <hr>\n\t<div style=\"position: absolute; top: 14cm; left: 0cm;\">\n\t\tPrepared By</div>\n\t<div style=\"position: absolute; top: 14cm; left: 5.5cm;\">\n\t\tAuthorised Signatory</div>\n\t<div style=\"position: absolute; top: 14cm; left: 11cm;\">\n\t\tReceived Payment as Above</div>\n\t<div style=\"position: absolute; top: 16.4cm; left: 5.9cm;\">\n\t\t<strong>_____________</strong></div>\n\t<div style=\"position: absolute; top: 16.7cm; left: 6cm;\">\n\t\t<strong>A/C Payee</strong></div>\n\t<div style=\"position: absolute; top: 16.7cm; left: 5.9cm;\">\n\t\t<strong>_____________</strong></div>\n\t<div style=\"position: absolute; top: 16.9cm; left: 12cm;\">\n\t\t{{ frappe.utils.formatdate(doc.cheque_date) }}</div>\n\t<div style=\"position: absolute; top: 17.9cm; left: 1cm;\">\n\t\t{{ doc.pay_to_recd_from }}</div>\n\t<div style=\"position: absolute; top: 18.6cm; left: 1cm; width: 7cm;\">\n\t\t{{ doc.total_amount_in_words }}</div>\n\t<div style=\"position: absolute; top: 19.7cm; left: 12cm;\">\n\t\t{{ doc.get_formatted(\"total_amount\") }}</div>\n</div>", 
  "line_breaks": 0, 
  "modified": "2015-05-29 01:57:51.203850", 
  "module": null, 
  "name": "Cheque Printing Format", 
  "print_format_builder": 0, 
  "print_format_type": "Server", 
  "show_section_headings": 0, 
  "standard": "Yes"
 }, 
 {
  "align_labels_left": 0, 
  "css": null, 
  "custom_format": 0, 
  "disabled": 0, 
  "doc_type": "Journal Entry", 
  "docstatus": 0, 
  "doctype": "Print Format", 
  "font": null, 
  "format_data": null, 
  "html": "", 
  "line_breaks": 0, 
  "modified": "2015-11-25 07:06:00.668141", 
  "module": null, 
  "name": "Payment Receipt Voucher", 
  "print_format_builder": 0, 
  "print_format_type": "Server", 
  "show_section_headings": 0, 
  "standard": "Yes"
 }, 
 {
  "align_labels_left": 0, 
  "css": null, 
  "custom_format": 0, 
  "disabled": 0, 
  "doc_type": "Journal Entry", 
  "docstatus": 0, 
  "doctype": "Print Format", 
  "font": null, 
  "format_data": null, 
  "html": "{%- from \"templates/print_formats/standard_macros.html\" import add_header -%}\n\n<div class=\"page-break\">\n    {%- if not doc.get(\"print_heading\") and not doc.get(\"select_print_heading\") \n        and doc.set(\"select_print_heading\", _(\"Credit Note\")) -%}{%- endif -%}\n    {{ add_header(0, 1, doc, letter_head, no_letterhead) }}\n\n    {%- for label, value in (\n        (_(\"Credit To\"), doc.pay_to_recd_from),\n        (_(\"Date\"), frappe.utils.formatdate(doc.voucher_date)),\n        (_(\"Amount\"), \"<strong>\" + doc.get_formatted(\"total_amount\") + \"</strong><br>\" + (doc.total_amount_in_words or \"\") + \"<br>\"),\n        (_(\"Remarks\"), doc.remark)\n    ) -%}\n\n    <div class=\"row\">\n        <div class=\"col-xs-3\"><label class=\"text-right\">{{ label }}</label></div>\n        <div class=\"col-xs-9\">{{ value }}</div>\n    </div>\n\n    {%- endfor -%}\n\n    <hr>\n    <br>\n    <p class=\"strong\">\n        {{ _(\"For\") }} {{ doc.company }},<br>\n        <br>\n        <br>\n        <br>\n        {{ _(\"Authorized Signatory\") }}\n    </p>\n</div>\n\n\n", 
  "line_breaks": 0, 
  "modified": "2015-07-22 17:42:01.560817", 
  "module": null, 
  "name": "Credit Note", 
  "print_format_builder": 0, 
  "print_format_type": "Server", 
  "show_section_headings": 0, 
  "standard": "Yes"
 }, 
 {
  "align_labels_left": 0, 
  "css": null, 
  "custom_format": 1, 
  "disabled": 0, 
  "doc_type": "Offer Letter", 
  "docstatus": 0, 
  "doctype": "Print Format", 
  "font": null, 
  "format_data": null, 
  "html": "{% set terms_exist = doc.terms and (doc.terms|striptags).strip() or \"\" %}\n\n{% if letter_head and not no_letterhead -%}\n    <div class=\"letter-head\">{{ letter_head }}</div>\n    <hr>\n{%- endif %}\n\n<div {% if terms_exist -%} class=\"page-break\" {%- endif %}>\n<p>\n\n<!-- offer letter content starts here, <br> is used to create new lines -->\nDate: {{ doc.offer_date }}\n<br><br>\n\nDear {{ doc.applicant_name }}, \n\n<br><br>\n\nWe are pleased to appoint you in the services of {{ doc.company }} on the terms and conditions detailed in this letter.\n\n<br><br>\n\nYour designation shall be <b>{{ doc.designation }}</b>.\n\n<br><br>\n\n<!-- offer letter terms and description from the table -->\n\n{%- if doc.offer_terms -%}\n    {%- for row in doc.offer_terms -%}\n        <b>{{ row.offer_term }}:</b> {{ row.value }}\n\n        <br>\n    {%- endfor -%}\n{%- endif -%}\n\n<br>\n\n<!-- offer letter content continues -->\n\n\nPlease read the detailed terms as below. If you have any queries, feel free to get in touch with us.\nWe look forward to your long and fruitful career association with our organisation.\nIf you decide to join us, 'Welcome to {{ doc.company }} !'\n\n<br><br>\n\n<p class=\"strong\">\n\nYours truly,\n\n<br><br><br><br>\n\nAuthorized Signatory\n\n<br>\n\n{{ doc.company }}\n\n<!-- offer letter content ends here -->\n\n</p>\n</div>\n\n<!-- offer letter terms and conditions -->\n{% if terms_exist %}\n<div> {{ doc.terms }} </div>\n{% endif %}", 
  "line_breaks": 0, 
  "modified": "2015-12-04 11:46:28.897657", 
  "module": null, 
  "name": "Offer Letter", 
  "print_format_builder": 0, 
  "print_format_type": "Server", 
  "show_section_headings": 0, 
  "standard": "Yes"
 }, 
 {
  "align_labels_left": 0, 
  "css": null, 
  "custom_format": 1, 
  "disabled": 0, 
  "doc_type": "Purchase Order", 
  "docstatus": 0, 
  "doctype": "Print Format", 
  "font": "Default", 
  "format_data": null, 
  "html": "<div class=\"page-break\">\n    <div class=\"print-heading\">\n\t\t<h2>Purchase Order<br>\n\t        <small>{{doc.name}}</small>\n        </h2>\n    </div>\n    <div class=\"row section-break\">\n        <div class=\"col-xs-6 column-break\">\n                <div class=\"row\">\n\t\t\t\t\t<div class=\"col-xs-5 text-right\">\n\t\t\t\t\t\t<label>Supplier Name</label>\n\t\t\t\t\t</div>\n\t\t\t\t\t<div class=\"col-xs-7  value\">\n\t\t\t\t\t\t{{doc.supplier_name}}\n\t\t\t\t\t</div>\n\t\t\t\t</div>\n\t\t\t\t{% if doc.address_display %}\n\t                <div class=\"row\">\n\t\t\t\t\t\t<div class=\"col-xs-5 text-right\">\n\t\t\t\t\t\t\t<label>Address</label>\n\t\t\t\t\t\t</div>\n\t\t\t\t\t\t<div class=\"col-xs-7  value\">\n\t\t\t\t\t\t\t{{doc.address_display}}\n\t\t\t\t\t\t</div>\n\t\t\t\t\t</div>\n\t\t\t\t{%- endif -%}\n\t\t\t\t{% if doc.contact_display %}\n\t                <div class=\"row\">\n\t\t\t\t\t\t<div class=\"col-xs-5 text-right\">\n\t\t\t\t\t\t\t<label>Contact</label>\n\t\t\t\t\t\t</div>\n\t\t\t\t\t\t<div class=\"col-xs-7  value\">\n\t\t\t\t\t\t\t{{doc.contact_display}}\n\t\t\t\t\t\t</div>\n\t\t\t\t\t</div>\n\t\t\t\t{%- endif -%}\n\t\t\t\t{% if doc.contact_mobile %}\n\t                <div class=\"row\">\n\t\t\t\t\t\t<div class=\"col-xs-5 text-right\">\n\t\t\t\t\t\t\t<label>Mobile No</label>\n\t\t\t\t\t\t</div>\n\t\t\t\t\t\t<div class=\"col-xs-7  value\">\n\t\t\t\t\t\t\t{{doc.contact_mobile}}\n\t\t\t\t\t\t</div>\n\t\t\t\t\t</div>\n\t\t\t\t{%- endif -%}\n        </div>\n        \n        <div class=\"col-xs-6 column-break\">\n            <div class=\"row\">\n\t\t\t\t<div class=\"col-xs-5 text-right\">\n\t\t\t\t\t<label>Date</label>\n\t\t\t\t</div>\n\t\t\t\t<div class=\"col-xs-7  value\">\n\t\t\t\t\t{{doc.transaction_date}}\n\t\t\t\t</div>\n\t\t\t</div>\n            <div class=\"row\">\n\t\t\t\t<div class=\"col-xs-5 text-right\">\n\t\t\t\t\t<label>Customer Name</label>\n\t\t\t\t</div>\n\t\t\t\t<div class=\"col-xs-7  value\">\n\t\t\t\t\t{{doc.customer_name}}\n\t\t\t\t</div>\n\t\t\t</div>\n\t\t\t{% if doc.shipping_address_display %}\n\t            <div class=\"row\">\n\t\t\t\t\t<div class=\"col-xs-5 text-right\">\n\t\t\t\t\t\t<label>Customer Address</label>\n\t\t\t\t\t</div>\n\t\t\t\t\t<div class=\"col-xs-7  value\">\n\t\t\t\t\t\t{{doc.shipping_address_display}}\n\t\t\t\t\t</div>\n\t\t\t\t</div>\n\t\t\t{%- endif -%}\n\t\t\t{% if doc.customer_contact_display %}\n\t            <div class=\"row\">\n\t\t\t\t\t<div class=\"col-xs-5 text-right\">\n\t\t\t\t\t\t<label>Customer Contact</label>\n\t\t\t\t\t</div>\n\t\t\t\t\t<div class=\"col-xs-7  value\">\n\t\t\t\t\t\t{{doc.customer_contact_display}}\n\t\t\t\t\t</div>\n\t\t\t\t</div>\n\t\t\t{%- endif -%}\n\t\t\t{% if doc.customer_contact_mobile %}\n\t            <div class=\"row\">\n\t\t\t\t\t<div class=\"col-xs-5 text-right\">\n\t\t\t\t\t\t<label>Customer Mobile No</label>\n\t\t\t\t\t</div>\n\t\t\t\t\t<div class=\"col-xs-7  value\">\n\t\t\t\t\t\t{{doc.customer_contact_mobile}}\n\t\t\t\t\t</div>\n\t\t\t\t</div>\n\t\t\t{%- endif -%}\n        </div>\n    </div>\n\t<table class=\"table table-bordered\">\n\t\t<tbody>\n\t\t\t<tr>\n\t\t\t\t<th>Sr</th>\n\t\t\t\t<th>Item Name</th>\n\t\t\t\t<th>Description</th>\n\t\t\t\t<th class=\"text-right\">Qty</th>\n\t\t\t\t<th class=\"text-right\">Rate</th>\n\t\t\t\t<th class=\"text-right\">Amount</th>\n\t\t\t</tr>\n\t\t\t{%- for row in doc.items -%}\n\t\t\t<tr>\n\t\t\t\t<td style=\"width: 3%;\">{{ row.idx }}</td>\n\t\t\t\t<td style=\"width: 20%;\">\n\t\t\t\t\t{{ row.item_name }}\n\t\t\t\t\t{% if row.item_code != row.item_name -%}\n\t\t\t\t\t<br>Item Code: {{ row.item_code}}\n\t\t\t\t\t{%- endif %}\n\t\t\t\t</td>\n\t\t\t\t<td style=\"width: 37%;\">\n\t\t\t\t\t<div style=\"border: 0px;\">{{ row.description }}</div></td>\n\t\t\t\t<td style=\"width: 10%; text-align: right;\">{{ row.qty }} {{ row.uom or row.stock_uom }}</td>\n\t\t\t\t<td style=\"width: 15%; text-align: right;\">{{\n\t\t\t\t\trow.get_formatted(\"rate\", doc) }}</td>\n\t\t\t\t<td style=\"width: 15%; text-align: right;\">{{\n\t\t\t\t\trow.get_formatted(\"amount\", doc) }}</td>\n\t\t\t</tr>\n\t\t\t{%- endfor -%}\n\t\t</tbody>\n\t</table>\n    <div class=\"row section-break\">\n        <div class=\"col-xs-6 column-break\">\n        </div>\n        <div class=\"col-xs-6 column-break\">\n                <div class=\"row\">\n\t\t\t\t\t<div class=\"col-xs-5 text-right\">\n\t\t\t\t\t\t<label>Total</label>\n\t\t\t\t\t</div>\n\t\t\t\t\t<div class=\"col-xs-7 text-right value\">\n\t\t\t\t\t\t{{doc.total}}\n\t\t\t\t\t</div>\n\t\t\t\t</div>\n                <div class=\"row\">\n\t\t\t\t\t<div class=\"col-xs-5 text-right\">\n\t\t\t\t\t\t<label>Grand Total</label>\n\t\t\t\t\t</div>\n\t\t\t\t\t<div class=\"col-xs-7 text-right value\">\n\t\t\t\t\t\t{{doc.grand_total}}\n\t\t\t\t\t</div>\n\t\t\t\t</div>\n                <div class=\"row\">\n\t\t\t\t\t<div class=\"col-xs-5 text-right\">\n\t\t\t\t\t\t<label>In Words</label>\n\t\t\t\t\t</div>\n\t\t\t\t\t<div class=\"col-xs-7 text-right value\">\n\t\t\t\t\t\t{{doc.in_words}}\n\t\t\t\t\t</div>\n\t\t\t\t</div>\n        </div>\n    </div>\n</div>", 
  "line_breaks": 0, 
  "modified": "2016-03-07 20:49:39.443328", 
  "module": null, 
  "name": "Drop Shipping Format", 
  "print_format_builder": 0, 
  "print_format_type": "Server", 
  "show_section_headings": 0, 
  "standard": "Yes"
 }, 
 {
  "align_labels_left": 0, 
  "css": null, 
  "custom_format": 1, 
  "disabled": 0, 
  "doc_type": "Sales Invoice", 
  "docstatus": 0, 
  "doctype": "Print Format", 
  "font": "Default", 
  "format_data": null, 
  "html": "<style>\n\t.print-format table, .print-format tr, \n\t.print-format td, .print-format div, .print-format p {\n\t\tfont-family: Monospace;\n\t\tline-height: 200%;\n\t\tvertical-align: middle;\n\t}\n\t@media screen {\n\t\t.print-format {\n\t\t\twidth: 4in;\n\t\t\tpadding: 0.25in;\n\t\t\tmin-height: 8in;\n\t\t}\n\t}\n</style>\n\n<p class=\"text-center\">\n\t{{ company }}<br>\n\t{{  __(\"POS No : \") }}{{offline_pos_name}}<br>\n</p>\n<p>\n\t<b>{{ __(\"Date\") }}:</b> {{ dateutil.global_date_format(posting_date) }}<br>\n</p>\n\n<hr>\n<table class=\"table table-condensed cart no-border\">\n\t<thead>\n\t\t<tr>\n\t\t\t<th width=\"50%\">{{ __(\"Item\") }}</b></th>\n\t\t\t<th width=\"25%\" class=\"text-right\">{{ __(\"Qty\") }}</th>\n\t\t\t<th width=\"25%\" class=\"text-right\">{{ __(\"Amount\") }}</th>\n\t\t</tr>\n\t</thead>\n\t<tbody>\n\t\t{% for item in items %}\n\t\t<tr>\n\t\t\t<td>\n\t\t\t\t{{ item.item_name }}\n\t\t\t</td>\n\t\t\t<td class=\"text-right\">{{ format_number(item.qty, precision(\"difference\")) }}<br>@ {{ format_currency(item.rate, currency) }}</td>\n\t\t\t<td class=\"text-right\">{{ format_currency(item.amount, currency) }}</td>\n\t\t</tr>\n\t\t{% endfor %}\n\t</tbody>\n</table>\n\n<table class=\"table table-condensed no-border\">\n\t<tbody>\n\t\t<tr>\n\t\t\t<td class=\"text-right\" style=\"width: 70%\">\n\t\t\t\t{{ __(\"Net Total\") }}\n\t\t\t</td>\n\t\t\t<td class=\"text-right\">\n\t\t\t\t{{ format_currency(total, currency) }}\n\t\t\t</td>\n\t\t</tr>\n\t\t{% for row in taxes %}\n\t\t{% if not row.included_in_print_rate %}\n\t\t<tr>\n\t\t\t<td class=\"text-right\" style=\"width: 70%\">\n\t\t\t\t{{ row.description }}\n\t\t\t</td>\n\t\t\t<td class=\"text-right\">\n\t\t\t\t{{ format_currency(row.tax_amount, currency) }}\n\t\t\t</td>\n\t\t</tr>\n\t\t{% endif %}\n\t\t{% endfor %}\n\t\t{% if discount_amount %}\n\t\t<tr>\n\t\t\t<td class=\"text-right\" style=\"width: 75%\">\n\t\t\t\t{{ __(\"Discount\") }}\n\t\t\t</td>\n\t\t\t<td class=\"text-right\">\n\t\t\t\t{{ format_currency(discount_amount, currency) }}\n\t\t\t</td>\n\t\t</tr>\n\t\t{% endif %}\n\t\t<tr>\n\t\t\t<td class=\"text-right\" style=\"width: 75%\">\n\t\t\t\t<b>{{ __(\"Grand Total\") }}</b>\n\t\t\t</td>\n\t\t\t<td class=\"text-right\">\n\t\t\t\t{{ format_currency(grand_total, currency) }}\n\t\t\t</td>\n\t\t</tr>\n\t\t<tr>\n\t\t\t<td class=\"text-right\" style=\"width: 75%\">\n\t\t\t\t<b>{{ __(\"Paid Amount\") }}</b>\n\t\t\t</td>\n\t\t\t<td class=\"text-right\">\n\t\t\t\t{{ format_currency(paid_amount, currency) }}\n\t\t\t</td>\n\t\t</tr>\n\t</tbody>\n</table>\n\n\n<hr>\n<p>{{ terms }}</p>\n<p class=\"text-center\">{{ __(\"Thank you, please visit again.\") }}</p>", 
  "line_breaks": 0, 
  "modified": "2017-01-12 14:56:12.571032", 
  "module": "Accounts", 
  "name": "Point of Sale", 
  "print_format_builder": 0, 
  "print_format_type": "Js", 
  "show_section_headings": 0, 
  "standard": "Yes"
 }, 
 {
  "align_labels_left": 0, 
  "css": null, 
  "custom_format": 0, 
  "disabled": 0, 
  "doc_type": "Salary Slip", 
  "docstatus": 0, 
  "doctype": "Print Format", 
  "font": "Default", 
  "format_data": "[{\"fieldname\": \"print_heading_template\", \"fieldtype\": \"HTML\", \"options\": \"   <h3 style=\\\"text-align: right;\\\"><span style=\\\"line-height: 1.42857;\\\">{{doc.name}}</span></h3>\\n<div>\\n    <hr style=\\\"text-align: center;\\\">\\n</div>   \"}, {\"fieldtype\": \"Section Break\"}, {\"fieldtype\": \"Column Break\"}, {\"print_hide\": 0, \"fieldname\": \"employee\"}, {\"print_hide\": 0, \"fieldname\": \"company\"}, {\"print_hide\": 0, \"fieldname\": \"employee_name\"}, {\"print_hide\": 0, \"fieldname\": \"department\"}, {\"print_hide\": 0, \"fieldname\": \"designation\"}, {\"print_hide\": 0, \"fieldname\": \"branch\"}, {\"fieldtype\": \"Column Break\"}, {\"print_hide\": 0, \"fieldname\": \"start_date\"}, {\"print_hide\": 0, \"fieldname\": \"end_date\"}, {\"print_hide\": 0, \"fieldname\": \"total_working_days\"}, {\"print_hide\": 0, \"fieldname\": \"leave_without_pay\"}, {\"print_hide\": 0, \"fieldname\": \"payment_days\"}, {\"fieldtype\": \"Section Break\"}, {\"fieldtype\": \"Column Break\"}, {\"visible_columns\": [{\"print_hide\": 0, \"fieldname\": \"salary_component\", \"print_width\": \"\"}, {\"print_hide\": 0, \"fieldname\": \"amount\", \"print_width\": \"\"}, {\"print_hide\": 0, \"fieldname\": \"depends_on_lwp\", \"print_width\": \"\"}], \"print_hide\": 0, \"fieldname\": \"earnings\"}, {\"fieldtype\": \"Column Break\"}, {\"visible_columns\": [{\"print_hide\": 0, \"fieldname\": \"salary_component\", \"print_width\": \"\"}, {\"print_hide\": 0, \"fieldname\": \"amount\", \"print_width\": \"\"}, {\"print_hide\": 0, \"fieldname\": \"depends_on_lwp\", \"print_width\": \"\"}], \"print_hide\": 0, \"fieldname\": \"deductions\"}, {\"fieldtype\": \"Section Break\"}, {\"fieldtype\": \"Column Break\"}, {\"fieldtype\": \"Column Break\"}, {\"print_hide\": 0, \"fieldname\": \"arrear_amount\"}, {\"print_hide\": 0, \"fieldname\": \"leave_encashment_amount\"}, {\"print_hide\": 0, \"fieldname\": \"gross_pay\"}, {\"print_hide\": 0, \"fieldname\": \"total_deduction\"}, {\"print_hide\": 0, \"fieldname\": \"net_pay\"}, {\"print_hide\": 0, \"fieldname\": \"rounded_total\"}, {\"print_hide\": 0, \"fieldname\": \"total_in_words\"}]", 
  "html": null, 
  "line_breaks": 0, 
  "modified": "2016-08-22 00:21:42.600548", 
  "module": null, 
  "name": "Salary Slip Standard", 
  "print_format_builder": 1, 
  "print_format_type": "Server", 
  "show_section_headings": 0, 
  "standard": "Yes"
 }, 
 {
  "align_labels_left": 0, 
  "css": null, 
  "custom_format": 0, 
  "disabled": 0, 
  "doc_type": "Salary Slip", 
  "docstatus": 0, 
  "doctype": "Print Format", 
  "font": "Default", 
  "format_data": "[{\"fieldname\": \"print_heading_template\", \"fieldtype\": \"HTML\", \"options\": \"  <h3 style=\\\"text-align: right;\\\">{{doc.name}}</h3><div><hr></div>  \"}, {\"fieldtype\": \"Section Break\"}, {\"fieldtype\": \"Column Break\"}, {\"print_hide\": 0, \"fieldname\": \"employee\"}, {\"print_hide\": 0, \"fieldname\": \"employee_name\"}, {\"print_hide\": 0, \"fieldname\": \"department\"}, {\"print_hide\": 0, \"fieldname\": \"designation\"}, {\"print_hide\": 0, \"fieldname\": \"branch\"}, {\"fieldtype\": \"Column Break\"}, {\"print_hide\": 0, \"fieldname\": \"start_date\"}, {\"print_hide\": 0, \"fieldname\": \"end_date\"}, {\"print_hide\": 0, \"fieldname\": \"total_working_hours\"}, {\"print_hide\": 0, \"fieldname\": \"hour_rate\"}, {\"fieldtype\": \"Section Break\"}, {\"fieldtype\": \"Column Break\"}, {\"visible_columns\": [{\"print_hide\": 0, \"fieldname\": \"time_sheet\", \"print_width\": \"\"}, {\"print_hide\": 0, \"fieldname\": \"working_hours\", \"print_width\": \"\"}], \"print_hide\": 0, \"fieldname\": \"timesheets\"}, {\"fieldtype\": \"Column Break\"}, {\"fieldtype\": \"Section Break\"}, {\"fieldtype\": \"Column Break\"}, {\"visible_columns\": [{\"print_hide\": 0, \"fieldname\": \"salary_component\", \"print_width\": \"\"}, {\"print_hide\": 0, \"fieldname\": \"amount\", \"print_width\": \"\"}, {\"print_hide\": 0, \"fieldname\": \"depends_on_lwp\", \"print_width\": \"\"}], \"print_hide\": 0, \"fieldname\": \"earnings\"}, {\"fieldtype\": \"Column Break\"}, {\"visible_columns\": [{\"print_hide\": 0, \"fieldname\": \"salary_component\", \"print_width\": \"\"}, {\"print_hide\": 0, \"fieldname\": \"amount\", \"print_width\": \"\"}, {\"print_hide\": 0, \"fieldname\": \"depends_on_lwp\", \"print_width\": \"\"}], \"print_hide\": 0, \"fieldname\": \"deductions\"}, {\"fieldtype\": \"Section Break\"}, {\"fieldtype\": \"Column Break\"}, {\"fieldtype\": \"Column Break\"}, {\"print_hide\": 0, \"fieldname\": \"gross_pay\"}, {\"print_hide\": 0, \"fieldname\": \"total_deduction\"}, {\"print_hide\": 0, \"fieldname\": \"net_pay\"}, {\"print_hide\": 0, \"fieldname\": \"rounded_total\"}, {\"print_hide\": 0, \"fieldname\": \"total_in_words\"}]", 
  "html": null, 
  "line_breaks": 0, 
  "modified": "2016-08-21 21:02:59.896033", 
  "module": null, 
  "name": "Salary Slip based on Timesheet", 
  "print_format_builder": 1, 
  "print_format_type": "Server", 
  "show_section_headings": 0, 
  "standard": "Yes"
 }
]